…
Preprocess training data

Applying the trained recipe to the training data

bank_training_prep <- bank_recipe_prep %>%
  bake (new_data = NULL)
bank_training_prep

## # A tibble: 708 x 29
##        age balance    day duration campaign y     job_management job_Others
##      <dbl>   <dbl>  <dbl>    <dbl>    <dbl> <fct>          <dbl>      <dbl>
##  1 -0.108    0.397 -1.10    -0.338   -0.104 0                  0          0
##  2  0.0910   1.30  -0.149   -1.07    -0.104 0                  0          1
##  3  0.290    1.82   0.206   -0.634   -0.104 0                  0          1
##  4 -0.906    0.214 -0.979   -0.361   -0.842 0                  0          1
##  5  0.191   -1.20   0.443   -0.423    0.634 0                  1          0
##  6  0.390   -0.260 -0.979   -0.540   -0.104 0                  0          1
##  7  1.29    -0.114  0.680   -0.937   -0.104 0                  0          1
##  8 -0.906    0.688  1.39    -0.883    0.634 0                  0          0
##  9  1.89    -0.880  0.680   -1.20    -0.842 0                  1          0
## 10 -0.208   -0.783  1.63    -0.750   -0.104 0                  0          0
## # ... with 698 more rows, and 21 more variables: job_technician <dbl>,
## #   marital_married <dbl>, marital_single <dbl>, education_secondary <dbl>,
## #   education_tertiary <dbl>, default_X1 <dbl>, housing_X1 <dbl>,
## #   loan_X1 <dbl>, contact_telephone.and.others <dbl>, month_X10 <dbl>,
## #   month_X11 <dbl>, month_X2 <dbl>, month_X3 <dbl>, month_X4 <dbl>,
## #   month_X5 <dbl>, month_X6 <dbl>, month_X7 <dbl>, month_X8 <dbl>,
## #   month_X9 <dbl>, poutcome_success.and.others <dbl>, ...

Preprocess test data

Applying trained recipe to the test data

bank_test_prep <- bank_recipe_prep %>%
  bake (new_data = bank_test)
bank_test_prep

## # A tibble: 236 x 29
##         age balance     day duration campaign y     job_management job_Others
##       <dbl>   <dbl>   <dbl>    <dbl>    <dbl> <fct>          <dbl>      <dbl>
##  1 -0.00873  0.968   1.63    -0.0417   -0.104 0                  1          0
##  2  0.390   -0.102  -0.386   -0.665    -0.104 0                  0          1
##  3  1.49     0.372  -1.57    -1.05      0.634 0                  0          0
##  4  1.09     1.08   -0.860   -0.470    -0.842 0                  0          0
##  5  0.191   -1.37   -1.22     1.45     -0.842 0                  0          1
##  6 -0.00873  1.27    0.206    0.0751   -0.104 0                  0          1
##  7 -1.21     0.761  -1.10    -0.345    -0.842 0                  0          1
##  8 -1.60     0.0563 -0.0308  -1.12     -0.842 0                  0          1
##  9  0.0910   0.652   0.325   -0.0573    0.634 0                  0          0
## 10 -0.507   -0.102  -0.505    3.07     -0.104 0                  1          0
## # ... with 226 more rows, and 21 more variables: job_technician <dbl>,
## #   marital_married <dbl>, marital_single <dbl>, education_secondary <dbl>,
## #   education_tertiary <dbl>, default_X1 <dbl>, housing_X1 <dbl>,
## #   loan_X1 <dbl>, contact_telephone.and.others <dbl>, month_X10 <dbl>,
## #   month_X11 <dbl>, month_X2 <dbl>, month_X3 <dbl>, month_X4 <dbl>,
## #   month_X5 <dbl>, month_X6 <dbl>, month_X7 <dbl>, month_X8 <dbl>,
## #   month_X9 <dbl>, poutcome_success.and.others <dbl>, ...
…
The above is the significant equation to predict the outcome variable. The AIC is 289.2, which is quite good compared to our manual method

Predicting outcome categories

class_preds <- predict (logistic_fit, new_data = bank_test_prep, type ="class")
class_preds

## # A tibble: 236 x 1
##    .pred_class
##    <fct>      
##  1 0          
##  2 0          
##  3 0          
##  4 0          
##  5 0          
##  6 0          
##  7 0          
##  8 0          
##  9 0          
## 10 0          
## # ... with 226 more rows

The above .pred class is the outcome of our results. That is if the customer is to subscribe to term deposit or not. The number o means no and 1 means yes to subscriptions

Estimated probabilities

prob_preds <- predict (logistic_fit, new_data = bank_test_prep, type ="prob")
prob_preds

## # A tibble: 236 x 2
##    .pred_0 .pred_1
##      <dbl>   <dbl>
##  1   0.982 0.0179 
##  2   0.968 0.0319 
##  3   0.995 0.00469
##  4   0.996 0.00354
##  5   0.915 0.0853 
##  6   0.973 0.0269 
##  7   0.981 0.0189 
##  8   0.916 0.0841 
##  9   0.984 0.0159 
## 10   0.872 0.128  
## # ... with 226 more rows

The above prediction is the probability of outcome occurences.

In tidymodels, outcome variable needs to be a factor

bank$y <- as.factor (bank$y)

Combining results

results <- bank_test_prep %>%
  bind_cols(class_preds, prob_preds)
results

## # A tibble: 236 x 32
##         age balance     day duration campaign y     job_management job_Others
##       <dbl>   <dbl>   <dbl>    <dbl>    <dbl> <fct>          <dbl>      <dbl>
##  1 -0.00873  0.968   1.63    -0.0417   -0.104 0                  1          0
##  2  0.390   -0.102  -0.386   -0.665    -0.104 0                  0          1
##  3  1.49     0.372  -1.57    -1.05      0.634 0                  0          0
##  4  1.09     1.08   -0.860   -0.470    -0.842 0                  0          0
##  5  0.191   -1.37   -1.22     1.45     -0.842 0                  0          1
##  6 -0.00873  1.27    0.206    0.0751   -0.104 0                  0          1
##  7 -1.21     0.761  -1.10    -0.345    -0.842 0                  0          1
##  8 -1.60     0.0563 -0.0308  -1.12     -0.842 0                  0          1
##  9  0.0910   0.652   0.325   -0.0573    0.634 0                  0          0
## 10 -0.507   -0.102  -0.505    3.07     -0.104 0                  1          0
## # ... with 226 more rows, and 24 more variables: job_technician <dbl>,
## #   marital_married <dbl>, marital_single <dbl>, education_secondary <dbl>,
## #   education_tertiary <dbl>, default_X1 <dbl>, housing_X1 <dbl>,
## #   loan_X1 <dbl>, contact_telephone.and.others <dbl>, month_X10 <dbl>,
## #   month_X11 <dbl>, month_X2 <dbl>, month_X3 <dbl>, month_X4 <dbl>,
## #   month_X5 <dbl>, month_X6 <dbl>, month_X7 <dbl>, month_X8 <dbl>,
## #   month_X9 <dbl>, poutcome_success.and.others <dbl>, ...
…
## # A tibble: 2 x 4
##   .metric  .estimator .estimate .config             
##   <chr>    <chr>          <dbl> <chr>               
## 1 accuracy binary         0.936 Preprocessor1_Model1
## 2 roc_auc  binary         0.828 Preprocessor1_Model1

collecting predictions

bank_wkfl_fit_results<- bank_wkfl_fit %>%
  collect_predictions()
bank_wkfl_fit_results

## # A tibble: 236 x 7
##    id               .pred_0 .pred_1  .row .pred_class y     .config             
##    <chr>              <dbl>   <dbl> <int> <fct>       <fct> <chr>               
##  1 train/test split   0.982 0.0179      4 0           0     Preprocessor1_Model1
##  2 train/test split   0.968 0.0319      7 0           0     Preprocessor1_Model1
##  3 train/test split   0.995 0.00469    12 0           0     Preprocessor1_Model1
##  4 train/test split   0.996 0.00354    16 0           0     Preprocessor1_Model1
##  5 train/test split   0.915 0.0853     17 0           0     Preprocessor1_Model1
##  6 train/test split   0.973 0.0269     19 0           0     Preprocessor1_Model1
##  7 train/test split   0.981 0.0189     21 0           0     Preprocessor1_Model1
##  8 train/test split   0.916 0.0841     28 0           0     Preprocessor1_Model1
##  9 train/test split   0.984 0.0159     30 0           0     Preprocessor1_Model1
## 10 train/test split   0.872 0.128      31 0           0     Preprocessor1_Model1
## # ... with 226 more rows
…
