Titanic Tree Based Model - My website
…
Preprocess training data

titanic_training_prep_dt <- titanic_recipe_prep_dt %>%
  bake (new_data = NULL)
titanic_training_prep_dt

## # A tibble: 791 x 10
##       age  sibsp  parch     fare survived sex_male pclass_1 pclass_2
##     <dbl>  <dbl>  <dbl>    <dbl> <fct>       <dbl>    <dbl>    <dbl>
##  1 -2.07   1.17   1.90   2.22    0               0    0.707    0.408
##  2  0.666 -0.643 -0.462 -0.673   0               1    0.707    0.408
##  3  1.26   1.17  -0.462  3.68    0               1    0.707    0.408
##  4 -0.444 -0.643  0.721  4.06    0               1    0.707    0.408
##  5  1.11  -0.643 -0.462  0.00586 0               1    0.707    0.408
##  6  0.888 -0.643 -0.462 -0.165   0               1    0.707    0.408
##  7  1.33  -0.643 -0.462  0.293   0               1    0.707    0.408
##  8  1.11  -0.643 -0.462 -0.165   0               1    0.707    0.408
##  9  0.222 -0.643 -0.462 -0.577   0               1    0.707    0.408
## 10 -0.961 -0.643 -0.462  0.228   0               1    0.707    0.408
## # ... with 781 more rows, and 2 more variables: embarked_Queenstown <dbl>,
## #   embarked_Southampton <dbl>

Preprocess test data

titanic_test_prep_dt <- titanic_recipe_prep_dt %>%
  bake (new_data = titanic_test)
titanic_test_prep_dt

## # A tibble: 198 x 10
##          age  sibsp  parch    fare survived sex_male pclass_1 pclass_2
##        <dbl>  <dbl>  <dbl>   <dbl> <fct>       <dbl>    <dbl>    <dbl>
##  1  0.000187  1.17   1.90   2.22   0               1    0.707    0.408
##  2 -0.370     1.17   1.90   2.22   0               0    0.707    0.408
##  3  0.444    -0.643 -0.462  0.766  0               1    0.707    0.408
##  4  0.518     1.17   0.721  0.332  1               1    0.707    0.408
##  5 -0.296    -0.643 -0.462 -0.0993 1               1    0.707    0.408
##  6 -0.370    -0.643 -0.462 -0.176  0               1    0.707    0.408
##  7  0.814    -0.643 -0.462 -0.0897 0               1    0.707    0.408
##  8  2.22     -0.643 -0.462  0.786  1               0    0.707    0.408
##  9  0.814    -0.643 -0.462  1.90   1               0    0.707    0.408
## 10  0.444    -0.643  0.721  9.12   1               1    0.707    0.408
## # ... with 188 more rows, and 2 more variables: embarked_Queenstown <dbl>,
## #   embarked_Southampton <dbl>
…
Predicting outcome variables

titanic_class_preds <- predict(titanic_fit_dt, new_data = titanic_test_prep_dt, type = "class")
titanic_class_preds

## # A tibble: 198 x 1
##    .pred_class
##    <fct>      
##  1 0          
##  2 1          
##  3 0          
##  4 0          
##  5 0          
##  6 0          
##  7 0          
##  8 1          
##  9 1          
## 10 0          
## # ... with 188 more rows

Estimated probabilities

titanic_prob_preds <- predict(titanic_fit_dt, new_data = titanic_test_prep_dt, type = "prob")
titanic_prob_preds

## # A tibble: 198 x 2
##    .pred_0 .pred_1
##      <dbl>   <dbl>
##  1  0.822    0.178
##  2  0.0645   0.935
##  3  0.822    0.178
##  4  0.822    0.178
##  5  0.822    0.178
##  6  0.822    0.178
##  7  0.822    0.178
##  8  0.0645   0.935
##  9  0.0645   0.935
## 10  0.822    0.178
## # ... with 188 more rows

Combining results

titanic_results <- titanic_test_prep_dt %>%
  bind_cols(titanic_class_preds, titanic_prob_preds)
titanic_results

## # A tibble: 198 x 13
##          age  sibsp  parch    fare survived sex_male pclass_1 pclass_2
##        <dbl>  <dbl>  <dbl>   <dbl> <fct>       <dbl>    <dbl>    <dbl>
##  1  0.000187  1.17   1.90   2.22   0               1    0.707    0.408
##  2 -0.370     1.17   1.90   2.22   0               0    0.707    0.408
##  3  0.444    -0.643 -0.462  0.766  0               1    0.707    0.408
##  4  0.518     1.17   0.721  0.332  1               1    0.707    0.408
##  5 -0.296    -0.643 -0.462 -0.0993 1               1    0.707    0.408
##  6 -0.370    -0.643 -0.462 -0.176  0               1    0.707    0.408
##  7  0.814    -0.643 -0.462 -0.0897 0               1    0.707    0.408
##  8  2.22     -0.643 -0.462  0.786  1               0    0.707    0.408
##  9  0.814    -0.643 -0.462  1.90   1               0    0.707    0.408
## 10  0.444    -0.643  0.721  9.12   1               1    0.707    0.408
## # ... with 188 more rows, and 5 more variables: embarked_Queenstown <dbl>,
## #   embarked_Southampton <dbl>, .pred_class <fct>, .pred_0 <dbl>, .pred_1 <dbl>
…
## # A tibble: 2 x 4
##   .metric  .estimator .estimate .config             
##   <chr>    <chr>          <dbl> <chr>               
## 1 accuracy binary         0.783 Preprocessor1_Model1
## 2 roc_auc  binary         0.810 Preprocessor1_Model1

Collecting predictions

titanic_wkfl_preds_dt <- titanic_wkfl_fit_dt %>%
  collect_predictions()
titanic_wkfl_preds_dt

## # A tibble: 198 x 7
##    id               .pred_0 .pred_1  .row .pred_class survived .config          
##    <chr>              <dbl>   <dbl> <int> <fct>       <fct>    <chr>            
##  1 train/test split  0.822    0.178     4 0           0        Preprocessor1_Mo~
##  2 train/test split  0.0645   0.935     5 1           0        Preprocessor1_Mo~
##  3 train/test split  0.822    0.178    17 0           0        Preprocessor1_Mo~
##  4 train/test split  0.822    0.178    18 0           1        Preprocessor1_Mo~
##  5 train/test split  0.822    0.178    20 0           1        Preprocessor1_Mo~
##  6 train/test split  0.822    0.178    23 0           0        Preprocessor1_Mo~
##  7 train/test split  0.822    0.178    35 0           0        Preprocessor1_Mo~
##  8 train/test split  0.0645   0.935    39 1           1        Preprocessor1_Mo~
##  9 train/test split  0.0645   0.935    40 1           1        Preprocessor1_Mo~
## 10 train/test split  0.822    0.178    44 0           1        Preprocessor1_Mo~
## # ... with 188 more rows
…
## # A tibble: 4 x 6
##   .metric  .estimator  mean     n std_err .config             
##   <chr>    <chr>      <dbl> <int>   <dbl> <chr>               
## 1 accuracy binary     0.807    10  0.0102 Preprocessor1_Model1
## 2 roc_auc  binary     0.825    10  0.0133 Preprocessor1_Model1
## 3 sens     binary     0.907    10  0.0108 Preprocessor1_Model1
## 4 spec     binary     0.668    10  0.0287 Preprocessor1_Model1

Detailed cross_validation results

titanic_rs_metrics_dt <-titanic_rs_fit_dt %>%
  collect_metrics(summarize = FALSE)
titanic_rs_metrics_dt 

## # A tibble: 40 x 5
##    id     .metric  .estimator .estimate .config             
##    <chr>  <chr>    <chr>          <dbl> <chr>               
##  1 Fold01 sens     binary         0.891 Preprocessor1_Model1
##  2 Fold01 spec     binary         0.706 Preprocessor1_Model1
##  3 Fold01 accuracy binary         0.812 Preprocessor1_Model1
##  4 Fold01 roc_auc  binary         0.853 Preprocessor1_Model1
##  5 Fold02 sens     binary         0.848 Preprocessor1_Model1
##  6 Fold02 spec     binary         0.758 Preprocessor1_Model1
##  7 Fold02 accuracy binary         0.810 Preprocessor1_Model1
##  8 Fold02 roc_auc  binary         0.828 Preprocessor1_Model1
##  9 Fold03 sens     binary         0.913 Preprocessor1_Model1
## 10 Fold03 spec     binary         0.727 Preprocessor1_Model1
## # ... with 30 more rows
…
Detailed tuning results

titanic_dt_tuning %>%
  collect_metrics(summarize = FALSE)

## # A tibble: 200 x 8
##    id     cost_complexity tree_depth min_n .metric  .estimator .estimate .config
##    <chr>            <dbl>      <int> <int> <chr>    <chr>          <dbl> <chr>  
##  1 Fold01        0.000608          8    23 sens     binary         0.717 Prepro~
##  2 Fold01        0.000608          8    23 spec     binary         0.765 Prepro~
##  3 Fold01        0.000608          8    23 accuracy binary         0.738 Prepro~
##  4 Fold01        0.000608          8    23 roc_auc  binary         0.867 Prepro~
##  5 Fold02        0.000608          8    23 sens     binary         0.783 Prepro~
##  6 Fold02        0.000608          8    23 spec     binary         0.818 Prepro~
##  7 Fold02        0.000608          8    23 accuracy binary         0.797 Prepro~
##  8 Fold02        0.000608          8    23 roc_auc  binary         0.870 Prepro~
##  9 Fold03        0.000608          8    23 sens     binary         0.804 Prepro~
## 10 Fold03        0.000608          8    23 spec     binary         0.727 Prepro~
## # ... with 190 more rows
…
## # A tibble: 2 x 4
##   .metric  .estimator .estimate .config             
##   <chr>    <chr>          <dbl> <chr>               
## 1 accuracy binary         0.763 Preprocessor1_Model1
## 2 roc_auc  binary         0.848 Preprocessor1_Model1

We can see that there is some improvement compared to what we got from without tuning model

`

titanic_prediction<- titanic_final_fit_dt %>%
  collect_predictions()
titanic_prediction

## # A tibble: 198 x 7
##    id               .pred_0 .pred_1  .row .pred_class survived .config          
##    <chr>              <dbl>   <dbl> <int> <fct>       <fct>    <chr>            
##  1 train/test split  0.783    0.217     4 0           0        Preprocessor1_Mo~
##  2 train/test split  0.0645   0.935     5 1           0        Preprocessor1_Mo~
##  3 train/test split  0.375    0.625    17 1           0        Preprocessor1_Mo~
##  4 train/test split  0.783    0.217    18 0           1        Preprocessor1_Mo~
##  5 train/test split  0.375    0.625    20 1           1        Preprocessor1_Mo~
##  6 train/test split  0.375    0.625    23 1           0        Preprocessor1_Mo~
##  7 train/test split  0.783    0.217    35 0           0        Preprocessor1_Mo~
##  8 train/test split  0.0645   0.935    39 1           1        Preprocessor1_Mo~
##  9 train/test split  0.0645   0.935    40 1           1        Preprocessor1_Mo~
## 10 train/test split  0.692    0.308    44 0           1        Preprocessor1_Mo~
## # ... with 188 more rows
…
Predicting outcome variables

titanic_class_preds_rf <- predict(titanic_fit_rf, new_data = titanic_test, type = "class")
titanic_class_preds_rf

## # A tibble: 198 x 1
##    .pred_class
##    <fct>      
##  1 0          
##  2 1          
##  3 0          
##  4 0          
##  5 1          
##  6 1          
##  7 0          
##  8 1          
##  9 1          
## 10 0          
## # ... with 188 more rows

Estimated probabilities

titanic_prob_preds_rf <- predict(titanic_fit_rf, new_data = titanic_test, type = "prob")
titanic_prob_preds_rf

## # A tibble: 198 x 2
##    .pred_0 .pred_1
##      <dbl>   <dbl>
##  1  0.599    0.401
##  2  0.0486   0.951
##  3  0.633    0.367
##  4  0.648    0.352
##  5  0.384    0.616
##  6  0.488    0.512
##  7  0.619    0.381
##  8  0.0477   0.952
##  9  0.01     0.99 
## 10  0.536    0.464
## # ... with 188 more rows
…
## # A tibble: 2 x 4
##   .metric  .estimator .estimate .config             
##   <chr>    <chr>          <dbl> <chr>               
## 1 accuracy binary         0.803 Preprocessor1_Model1
## 2 roc_auc  binary         0.846 Preprocessor1_Model1

Collecting predictions

titanic_wkfl_preds_rf <- titanic_wkfl_fit_rf %>%
  collect_predictions()
titanic_wkfl_preds_rf

## # A tibble: 198 x 7
##    id               .pred_0 .pred_1  .row .pred_class survived .config          
##    <chr>              <dbl>   <dbl> <int> <fct>       <fct>    <chr>            
##  1 train/test split  0.522    0.478     4 0           0        Preprocessor1_Mo~
##  2 train/test split  0.0627   0.937     5 1           0        Preprocessor1_Mo~
##  3 train/test split  0.547    0.453    17 0           0        Preprocessor1_Mo~
##  4 train/test split  0.706    0.294    18 0           1        Preprocessor1_Mo~
##  5 train/test split  0.339    0.661    20 1           1        Preprocessor1_Mo~
##  6 train/test split  0.521    0.479    23 0           0        Preprocessor1_Mo~
##  7 train/test split  0.685    0.315    35 0           0        Preprocessor1_Mo~
##  8 train/test split  0.0325   0.968    39 1           1        Preprocessor1_Mo~
##  9 train/test split  0        1        40 1           1        Preprocessor1_Mo~
## 10 train/test split  0.591    0.409    44 0           1        Preprocessor1_Mo~
## # ... with 188 more rows
…
## # A tibble: 4 x 6
##   .metric  .estimator  mean     n std_err .config             
##   <chr>    <chr>      <dbl> <int>   <dbl> <chr>               
## 1 accuracy binary     0.807    10  0.0129 Preprocessor1_Model1
## 2 roc_auc  binary     0.867    10  0.0105 Preprocessor1_Model1
## 3 sens     binary     0.893    10  0.0143 Preprocessor1_Model1
## 4 spec     binary     0.686    10  0.0226 Preprocessor1_Model1

Detailed cross_validation results

titanic_rs_metrics_rf <-titanic_rs_fit_rf %>%
  collect_metrics(summarize = FALSE)
titanic_rs_metrics_rf 

## # A tibble: 40 x 5
##    id     .metric  .estimator .estimate .config             
##    <chr>  <chr>    <chr>          <dbl> <chr>               
##  1 Fold01 sens     binary         0.957 Preprocessor1_Model1
##  2 Fold01 spec     binary         0.676 Preprocessor1_Model1
##  3 Fold01 accuracy binary         0.838 Preprocessor1_Model1
##  4 Fold01 roc_auc  binary         0.930 Preprocessor1_Model1
##  5 Fold02 sens     binary         0.935 Preprocessor1_Model1
##  6 Fold02 spec     binary         0.727 Preprocessor1_Model1
##  7 Fold02 accuracy binary         0.848 Preprocessor1_Model1
##  8 Fold02 roc_auc  binary         0.862 Preprocessor1_Model1
##  9 Fold03 sens     binary         0.891 Preprocessor1_Model1
## 10 Fold03 spec     binary         0.697 Preprocessor1_Model1
## # ... with 30 more rows
…
Exploring tuning results

titanic_rf_tuning %>%
  collect_metrics()

## # A tibble: 40 x 9
##     mtry trees min_n .metric  .estimator  mean     n std_err .config            
##    <int> <int> <int> <chr>    <chr>      <dbl> <int>   <dbl> <chr>              
##  1     7  1067    18 accuracy binary     0.808    10  0.0121 Preprocessor1_Mode~
##  2     7  1067    18 roc_auc  binary     0.868    10  0.0111 Preprocessor1_Mode~
##  3     7  1067    18 sens     binary     0.893    10  0.0139 Preprocessor1_Mode~
##  4     7  1067    18 spec     binary     0.689    10  0.0243 Preprocessor1_Mode~
##  5     2   385    10 accuracy binary     0.808    10  0.0155 Preprocessor1_Mode~
##  6     2   385    10 roc_auc  binary     0.870    10  0.0106 Preprocessor1_Mode~
##  7     2   385    10 sens     binary     0.902    10  0.0127 Preprocessor1_Mode~
##  8     2   385    10 spec     binary     0.677    10  0.0308 Preprocessor1_Mode~
##  9     2   774    29 accuracy binary     0.817    10  0.0128 Preprocessor1_Mode~
## 10     2   774    29 roc_auc  binary     0.870    10  0.0106 Preprocessor1_Mode~
## # ... with 30 more rows

Detailed tuning results

titanic_rf_tuning %>%
  collect_metrics(summarize = FALSE)

## # A tibble: 400 x 8
##    id      mtry trees min_n .metric  .estimator .estimate .config              
##    <chr>  <int> <int> <int> <chr>    <chr>          <dbl> <chr>                
##  1 Fold01     7  1067    18 sens     binary         0.957 Preprocessor1_Model01
##  2 Fold01     7  1067    18 spec     binary         0.676 Preprocessor1_Model01
##  3 Fold01     7  1067    18 accuracy binary         0.838 Preprocessor1_Model01
##  4 Fold01     7  1067    18 roc_auc  binary         0.926 Preprocessor1_Model01
##  5 Fold02     7  1067    18 sens     binary         0.957 Preprocessor1_Model01
##  6 Fold02     7  1067    18 spec     binary         0.697 Preprocessor1_Model01
##  7 Fold02     7  1067    18 accuracy binary         0.848 Preprocessor1_Model01
##  8 Fold02     7  1067    18 roc_auc  binary         0.864 Preprocessor1_Model01
##  9 Fold03     7  1067    18 sens     binary         0.913 Preprocessor1_Model01
## 10 Fold03     7  1067    18 spec     binary         0.727 Preprocessor1_Model01
## # ... with 390 more rows
…
## # A tibble: 2 x 4
##   .metric  .estimator .estimate .config             
##   <chr>    <chr>          <dbl> <chr>               
## 1 accuracy binary         0.793 Preprocessor1_Model1
## 2 roc_auc  binary         0.863 Preprocessor1_Model1

We can see that there is some improvement compared to what we got from without tuning model

`

titanic_prediction_rf<- titanic_final_fit_rf %>%
  collect_predictions()
titanic_prediction_rf

## # A tibble: 198 x 7
##    id               .pred_0 .pred_1  .row .pred_class survived .config          
##    <chr>              <dbl>   <dbl> <int> <fct>       <fct>    <chr>            
##  1 train/test split 0.602     0.398     4 0           0        Preprocessor1_Mo~
##  2 train/test split 0.0326    0.967     5 1           0        Preprocessor1_Mo~
##  3 train/test split 0.637     0.363    17 0           0        Preprocessor1_Mo~
##  4 train/test split 0.618     0.382    18 0           1        Preprocessor1_Mo~
##  5 train/test split 0.455     0.545    20 1           1        Preprocessor1_Mo~
##  6 train/test split 0.585     0.415    23 0           0        Preprocessor1_Mo~
##  7 train/test split 0.666     0.334    35 0           0        Preprocessor1_Mo~
##  8 train/test split 0.0763    0.924    39 1           1        Preprocessor1_Mo~
##  9 train/test split 0.00736   0.993    40 1           1        Preprocessor1_Mo~
## 10 train/test split 0.629     0.371    44 0           1        Preprocessor1_Mo~
## # ... with 188 more rows
…
