…
## # A tibble: 2 x 4
##   .metric  .estimator .estimate .config             
##   <chr>    <chr>          <dbl> <chr>               
## 1 accuracy binary         0.768 Preprocessor1_Model1
## 2 roc_auc  binary         0.777 Preprocessor1_Model1

Collecting predictions

titanic_wkfl_preds_dt <- titanic_wkfl_fit_dt %>%
  collect_predictions()
titanic_wkfl_preds_dt

## # A tibble: 198 x 7
##    id               .pred_0 .pred_1  .row .pred_class survived .config          
##    <chr>              <dbl>   <dbl> <int> <fct>       <fct>    <chr>            
##  1 train/test split  0.0541   0.946     3 1           0        Preprocessor1_Mo~
##  2 train/test split  0.0541   0.946     5 1           0        Preprocessor1_Mo~
##  3 train/test split  0.831    0.169    10 0           0        Preprocessor1_Mo~
##  4 train/test split  0.831    0.169    14 0           0        Preprocessor1_Mo~
##  5 train/test split  0.831    0.169    24 0           1        Preprocessor1_Mo~
##  6 train/test split  0.831    0.169    29 0           1        Preprocessor1_Mo~
##  7 train/test split  0.0541   0.946    31 1           1        Preprocessor1_Mo~
##  8 train/test split  0.0541   0.946    33 1           1        Preprocessor1_Mo~
##  9 train/test split  0.0541   0.946    34 1           1        Preprocessor1_Mo~
## 10 train/test split  0.831    0.169    36 0           0        Preprocessor1_Mo~
## # ... with 188 more rows
…
## # A tibble: 4 x 6
##   .metric  .estimator  mean     n std_err .config             
##   <chr>    <chr>      <dbl> <int>   <dbl> <chr>               
## 1 accuracy binary     0.810    10  0.0116 Preprocessor1_Model1
## 2 roc_auc  binary     0.834    10  0.0125 Preprocessor1_Model1
## 3 sens     binary     0.9      10  0.0205 Preprocessor1_Model1
## 4 spec     binary     0.686    10  0.0242 Preprocessor1_Model1

Detailed cross_validation results

titanic_rs_metrics_dt <-titanic_rs_fit_dt %>%
  collect_metrics(summarize = FALSE)
titanic_rs_metrics_dt 

## # A tibble: 40 x 5
##    id     .metric  .estimator .estimate .config             
##    <chr>  <chr>    <chr>          <dbl> <chr>               
##  1 Fold01 sens     binary         0.826 Preprocessor1_Model1
##  2 Fold01 spec     binary         0.647 Preprocessor1_Model1
##  3 Fold01 accuracy binary         0.75  Preprocessor1_Model1
##  4 Fold01 roc_auc  binary         0.788 Preprocessor1_Model1
##  5 Fold02 sens     binary         0.978 Preprocessor1_Model1
##  6 Fold02 spec     binary         0.727 Preprocessor1_Model1
##  7 Fold02 accuracy binary         0.873 Preprocessor1_Model1
##  8 Fold02 roc_auc  binary         0.900 Preprocessor1_Model1
##  9 Fold03 sens     binary         0.826 Preprocessor1_Model1
## 10 Fold03 spec     binary         0.697 Preprocessor1_Model1
## # ... with 30 more rows
…
Detailed tuning results

titanic_dt_tuning %>%
  collect_metrics(summarize = FALSE)

## # A tibble: 200 x 8
##    id     cost_complexity tree_depth min_n .metric  .estimator .estimate .config
##    <chr>            <dbl>      <int> <int> <chr>    <chr>          <dbl> <chr>  
##  1 Fold01        0.000608          8    23 sens     binary         0.804 Prepro~
##  2 Fold01        0.000608          8    23 spec     binary         0.706 Prepro~
##  3 Fold01        0.000608          8    23 accuracy binary         0.762 Prepro~
##  4 Fold01        0.000608          8    23 roc_auc  binary         0.845 Prepro~
##  5 Fold02        0.000608          8    23 sens     binary         0.957 Prepro~
##  6 Fold02        0.000608          8    23 spec     binary         0.788 Prepro~
##  7 Fold02        0.000608          8    23 accuracy binary         0.886 Prepro~
##  8 Fold02        0.000608          8    23 roc_auc  binary         0.926 Prepro~
##  9 Fold03        0.000608          8    23 sens     binary         0.848 Prepro~
## 10 Fold03        0.000608          8    23 spec     binary         0.667 Prepro~
## # ... with 190 more rows
…
