…
With the instruction above we prepared the training data set.

Preprocess training data

bank_churn_training_prep <- bank_churn_recipe_prep %>%
  bake (new_data = NULL)
bank_churn_training_prep

## # A tibble: 7,654 x 12
##    CreditScore    Age   Tenure Balance NumOfProducts EstimatedSalary Exited
##          <dbl>  <dbl>    <dbl>   <dbl>         <dbl>           <dbl> <fct> 
##  1      -0.438  0.370 -1.37      0.126        -0.945           0.214 0     
##  2       0.510  0.143 -1.37     -1.22          0.878          -0.112 0     
##  3       2.08   0.598 -1.03      0.794        -0.945          -0.369 0     
##  4      -1.55   0.712 -0.339     1.06          0.878          -0.441 0     
##  5      -1.27  -0.768  0.351     0.418         0.878          -0.350 0     
##  6      -1.59  -1.57  -0.684    -1.22          0.878          -0.416 0     
##  7      -1.81  -0.427  1.73     -1.22          0.878          -1.29  0     
##  8      -1.05  -1.45   0.00572  -1.22          0.878           1.58  0     
##  9      -0.157 -0.313  0.696    -1.22          0.878          -0.598 0     
## 10      -0.354  0.826 -0.684     1.08          0.878          -0.626 0     
## # ... with 7,644 more rows, and 5 more variables: Geography_Germany <dbl>,
## #   Geography_Spain <dbl>, Gender_Male <dbl>, HasCrCard_X1 <dbl>,
## #   IsActiveMember_X1 <dbl>

We have pre-processed the training data set.

Preprocess test data

bank_churn_test_prep <- bank_churn_recipe_prep %>%
  bake (new_data = bank_churn_test)
bank_churn_test_prep

## # A tibble: 1,915 x 12
##    CreditScore     Age   Tenure Balance NumOfProducts EstimatedSalary Exited
##          <dbl>   <dbl>    <dbl>   <dbl>         <dbl>           <dbl> <fct> 
##  1      -0.323  0.484  -1.03     -1.22         -0.945         0.0191  1     
##  2       1.79   1.40    0.696    -1.22          0.878        -1.57    0     
##  3       0.353 -1.22   -1.03      0.940        -0.945        -0.497   0     
##  4      -1.05  -1.57    1.39     -1.22          0.878        -1.50    0     
##  5       2.04   0.0288  0.00572  -1.22         -0.945         1.52    0     
##  6      -0.792  0.598  -0.684     1.05         -0.945        -0.00114 0     
##  7       0.749 -0.996   1.39     -1.22          0.878         0.728   0     
##  8      -1.67  -0.768  -0.684     1.11         -0.945         0.241   0     
##  9      -1.93   1.51    1.04      0.746        -0.945         1.41    1     
## 10      -0.136  0.143   1.39      0.992        -0.945         0.303   1     
## # ... with 1,905 more rows, and 5 more variables: Geography_Germany <dbl>,
## #   Geography_Spain <dbl>, Gender_Male <dbl>, HasCrCard_X1 <dbl>,
## #   IsActiveMember_X1 <dbl>
…
Observed that the selected independent variables are the same to those selected in Section 8.

Predicting outcome categories

bank_churn_logistic_class_preds <- predict (bank_churn_logistic_fit, new_data = bank_churn_test_prep, type ="class")
bank_churn_logistic_class_preds

## # A tibble: 1,915 x 1
##    .pred_class
##    <fct>      
##  1 0          
##  2 0          
##  3 0          
##  4 0          
##  5 0          
##  6 0          
##  7 0          
##  8 0          
##  9 1          
## 10 0          
## # ... with 1,905 more rows

The above .pred class is the outcome of our results. That is if the customer will churn or not. The number o means churn and 1 means no churn.

Estimated probabilities

bank_churn_logistic_prob_preds <- predict (bank_churn_logistic_fit, new_data = bank_churn_test_prep, type ="prob")
bank_churn_logistic_prob_preds

## # A tibble: 1,915 x 2
##    .pred_0 .pred_1
##      <dbl>   <dbl>
##  1   0.827  0.173 
##  2   0.866  0.134 
##  3   0.971  0.0286
##  4   0.982  0.0185
##  5   0.895  0.105 
##  6   0.600  0.400 
##  7   0.970  0.0300
##  8   0.948  0.0520
##  9   0.358  0.642 
## 10   0.727  0.273 
## # ... with 1,905 more rows

The above prediction are the probabilities of outcome occurrences.

Combining results

bank_churn_logistic_results <- bank_churn_test_prep %>%
  bind_cols(bank_churn_logistic_class_preds, bank_churn_logistic_prob_preds)
bank_churn_logistic_results

## # A tibble: 1,915 x 15
##    CreditScore     Age   Tenure Balance NumOfProducts EstimatedSalary Exited
##          <dbl>   <dbl>    <dbl>   <dbl>         <dbl>           <dbl> <fct> 
##  1      -0.323  0.484  -1.03     -1.22         -0.945         0.0191  1     
##  2       1.79   1.40    0.696    -1.22          0.878        -1.57    0     
##  3       0.353 -1.22   -1.03      0.940        -0.945        -0.497   0     
##  4      -1.05  -1.57    1.39     -1.22          0.878        -1.50    0     
##  5       2.04   0.0288  0.00572  -1.22         -0.945         1.52    0     
##  6      -0.792  0.598  -0.684     1.05         -0.945        -0.00114 0     
##  7       0.749 -0.996   1.39     -1.22          0.878         0.728   0     
##  8      -1.67  -0.768  -0.684     1.11         -0.945         0.241   0     
##  9      -1.93   1.51    1.04      0.746        -0.945         1.41    1     
## 10      -0.136  0.143   1.39      0.992        -0.945         0.303   1     
## # ... with 1,905 more rows, and 8 more variables: Geography_Germany <dbl>,
## #   Geography_Spain <dbl>, Gender_Male <dbl>, HasCrCard_X1 <dbl>,
## #   IsActiveMember_X1 <dbl>, .pred_class <fct>, .pred_0 <dbl>, .pred_1 <dbl>
…
## # A tibble: 2 x 4
##   .metric  .estimator .estimate .config             
##   <chr>    <chr>          <dbl> <chr>               
## 1 accuracy binary         0.841 Preprocessor1_Model1
## 2 roc_auc  binary         0.804 Preprocessor1_Model1

The accuracy of the logistic regression model is 84.28% and roc-auc is 80.99%

collecting predictions

bank_churn_logistic_wkfl_fit_results<- bank_churn_logistic__wkfl_fit %>%
  collect_predictions()
bank_churn_logistic_wkfl_fit_results

## # A tibble: 1,915 x 7
##    id               .pred_0 .pred_1  .row .pred_class Exited .config            
##    <chr>              <dbl>   <dbl> <int> <fct>       <fct>  <chr>              
##  1 train/test split   0.827  0.173      1 0           1      Preprocessor1_Mode~
##  2 train/test split   0.866  0.134      7 0           0      Preprocessor1_Mode~
##  3 train/test split   0.971  0.0286     9 0           0      Preprocessor1_Mode~
##  4 train/test split   0.982  0.0185    17 0           0      Preprocessor1_Mode~
##  5 train/test split   0.895  0.105     24 0           0      Preprocessor1_Mode~
##  6 train/test split   0.600  0.400     28 0           0      Preprocessor1_Mode~
##  7 train/test split   0.970  0.0300    34 0           0      Preprocessor1_Mode~
##  8 train/test split   0.948  0.0520    36 0           0      Preprocessor1_Mode~
##  9 train/test split   0.358  0.642     41 1           1      Preprocessor1_Mode~
## 10 train/test split   0.727  0.273     47 0           1      Preprocessor1_Mode~
## # ... with 1,905 more rows
…
We considered all independent variables for model fitting.

Predicting outcome variables

bank_churn_class_preds_rf <- predict(bank_churn_fit_rf, new_data = bank_churn_test_prep, type = "class")
bank_churn_class_preds_rf

## # A tibble: 1,915 x 1
##    .pred_class
##    <fct>      
##  1 0          
##  2 0          
##  3 0          
##  4 0          
##  5 0          
##  6 0          
##  7 0          
##  8 0          
##  9 1          
## 10 0          
## # ... with 1,905 more rows

The table above shows a sample of predicted outcomes using the independent set.

Estimated probabilities

bank_churn_prob_preds_rf <- predict(bank_churn_fit_rf, new_data = bank_churn_test_prep, type = "prob")
bank_churn_prob_preds_rf

## # A tibble: 1,915 x 2
##    .pred_0 .pred_1
##      <dbl>   <dbl>
##  1   0.732  0.268 
##  2   0.902  0.0981
##  3   0.957  0.0425
##  4   0.912  0.0883
##  5   0.833  0.167 
##  6   0.662  0.338 
##  7   0.988  0.0125
##  8   0.957  0.0428
##  9   0.287  0.713 
## 10   0.638  0.362 
## # ... with 1,905 more rows

The table above shows the corresponding predicted probabilities using the test data set.

Combining results

bank_churn_results_rf <- bank_churn_test_prep %>%
  bind_cols(bank_churn_class_preds_rf, bank_churn_prob_preds_rf)
bank_churn_results_rf

## # A tibble: 1,915 x 15
##    CreditScore     Age   Tenure Balance NumOfProducts EstimatedSalary Exited
##          <dbl>   <dbl>    <dbl>   <dbl>         <dbl>           <dbl> <fct> 
##  1      -0.323  0.484  -1.03     -1.22         -0.945         0.0191  1     
##  2       1.79   1.40    0.696    -1.22          0.878        -1.57    0     
##  3       0.353 -1.22   -1.03      0.940        -0.945        -0.497   0     
##  4      -1.05  -1.57    1.39     -1.22          0.878        -1.50    0     
##  5       2.04   0.0288  0.00572  -1.22         -0.945         1.52    0     
##  6      -0.792  0.598  -0.684     1.05         -0.945        -0.00114 0     
##  7       0.749 -0.996   1.39     -1.22          0.878         0.728   0     
##  8      -1.67  -0.768  -0.684     1.11         -0.945         0.241   0     
##  9      -1.93   1.51    1.04      0.746        -0.945         1.41    1     
## 10      -0.136  0.143   1.39      0.992        -0.945         0.303   1     
## # ... with 1,905 more rows, and 8 more variables: Geography_Germany <dbl>,
## #   Geography_Spain <dbl>, Gender_Male <dbl>, HasCrCard_X1 <dbl>,
## #   IsActiveMember_X1 <dbl>, .pred_class <fct>, .pred_0 <dbl>, .pred_1 <dbl>
…
** Performance comparison among RF, LG, and SVM models **

The table above shows some performance metrics of the RF model on the testing set. RF model achieved an accuracy of 85.37% and a ROC AUC score of 85.48%. Compared to the Logistic Regression Model, which obtained an accuracy of 83.4% and a ROC AUC score of 81.7%, it is clear that RF model slightly outperformed it in both metrics. Also, we can see that RF model achieves a much better performance than SVM model, since the latter model reported an accuracy of 80.21% and a ROC AUC score of 59.89%.
For this reason, we selected RF model for further refinements.

Collecting predictions

bank_churn_wkfl_preds_rf <- bank_churn_wkfl_fit_rf %>%
  collect_predictions()
bank_churn_wkfl_preds_rf

## # A tibble: 1,915 x 7
##    id               .pred_0 .pred_1  .row .pred_class Exited .config            
##    <chr>              <dbl>   <dbl> <int> <fct>       <fct>  <chr>              
##  1 train/test split   0.682 0.318       1 0           1      Preprocessor1_Mode~
##  2 train/test split   0.859 0.141       7 0           0      Preprocessor1_Mode~
##  3 train/test split   0.963 0.0370      9 0           0      Preprocessor1_Mode~
##  4 train/test split   0.930 0.0705     17 0           0      Preprocessor1_Mode~
##  5 train/test split   0.859 0.141      24 0           0      Preprocessor1_Mode~
##  6 train/test split   0.653 0.347      28 0           0      Preprocessor1_Mode~
##  7 train/test split   0.994 0.00629    34 0           0      Preprocessor1_Mode~
##  8 train/test split   0.966 0.0345     36 0           0      Preprocessor1_Mode~
##  9 train/test split   0.288 0.712      41 1           1      Preprocessor1_Mode~
## 10 train/test split   0.660 0.340      47 0           1      Preprocessor1_Mode~
## # ... with 1,905 more rows
…
The cross-validation training resulted in an average accuracy of 0.861, an average sensitivity of 0.447, an average specificity of 0.447, and an average ROC AUC score of 0.848.

Detailed cross_validation results

bank_churn_rs_metrics_rf <-bank_churn_rs_fit_rf %>%
  collect_metrics(summarize = FALSE)
bank_churn_rs_metrics_rf 

## # A tibble: 40 x 5
##    id     .metric  .estimator .estimate .config             
##    <chr>  <chr>    <chr>          <dbl> <chr>               
##  1 Fold01 sens     binary         0.950 Preprocessor1_Model1
##  2 Fold01 spec     binary         0.474 Preprocessor1_Model1
##  3 Fold01 accuracy binary         0.855 Preprocessor1_Model1
##  4 Fold01 roc_auc  binary         0.832 Preprocessor1_Model1
##  5 Fold02 sens     binary         0.959 Preprocessor1_Model1
##  6 Fold02 spec     binary         0.493 Preprocessor1_Model1
##  7 Fold02 accuracy binary         0.867 Preprocessor1_Model1
##  8 Fold02 roc_auc  binary         0.857 Preprocessor1_Model1
##  9 Fold03 sens     binary         0.969 Preprocessor1_Model1
## 10 Fold03 spec     binary         0.447 Preprocessor1_Model1
## # ... with 30 more rows
…
Exploring tuning results

bank_churn_rf_tuning %>%
  collect_metrics()

## # A tibble: 40 x 9
##     mtry trees min_n .metric  .estimator  mean     n std_err .config            
##    <int> <int> <int> <chr>    <chr>      <dbl> <int>   <dbl> <chr>              
##  1     6   374    30 accuracy binary     0.862    10 0.00224 Preprocessor1_Mode~
##  2     6   374    30 roc_auc  binary     0.849    10 0.00507 Preprocessor1_Mode~
##  3     6   374    30 sens     binary     0.964    10 0.00216 Preprocessor1_Mode~
##  4     6   374    30 spec     binary     0.449    10 0.0109  Preprocessor1_Mode~
##  5     6  1474    21 accuracy binary     0.863    10 0.00165 Preprocessor1_Mode~
##  6     6  1474    21 roc_auc  binary     0.848    10 0.00513 Preprocessor1_Mode~
##  7     6  1474    21 sens     binary     0.963    10 0.00208 Preprocessor1_Mode~
##  8     6  1474    21 spec     binary     0.458    10 0.0119  Preprocessor1_Mode~
##  9    10  1621    33 accuracy binary     0.863    10 0.00179 Preprocessor1_Mode~
## 10    10  1621    33 roc_auc  binary     0.845    10 0.00523 Preprocessor1_Mode~
## # ... with 30 more rows

The table above shows a sample of the different combinations tested during the process.

Detailed tuning results

bank_churn_rf_tuning %>%
  collect_metrics(summarize = FALSE)

## # A tibble: 400 x 8
##    id      mtry trees min_n .metric  .estimator .estimate .config              
##    <chr>  <int> <int> <int> <chr>    <chr>          <dbl> <chr>                
##  1 Fold01     6   374    30 sens     binary         0.959 Preprocessor1_Model01
##  2 Fold01     6   374    30 spec     binary         0.467 Preprocessor1_Model01
##  3 Fold01     6   374    30 accuracy binary         0.862 Preprocessor1_Model01
##  4 Fold01     6   374    30 roc_auc  binary         0.842 Preprocessor1_Model01
##  5 Fold02     6   374    30 sens     binary         0.959 Preprocessor1_Model01
##  6 Fold02     6   374    30 spec     binary         0.493 Preprocessor1_Model01
##  7 Fold02     6   374    30 accuracy binary         0.867 Preprocessor1_Model01
##  8 Fold02     6   374    30 roc_auc  binary         0.850 Preprocessor1_Model01
##  9 Fold03     6   374    30 sens     binary         0.969 Preprocessor1_Model01
## 10 Fold03     6   374    30 spec     binary         0.434 Preprocessor1_Model01
## # ... with 390 more rows
…
## # A tibble: 2 x 4
##   .metric  .estimator .estimate .config             
##   <chr>    <chr>          <dbl> <chr>               
## 1 accuracy binary         0.861 Preprocessor1_Model1
## 2 roc_auc  binary         0.861 Preprocessor1_Model1

We can see above that accuracy and ROC AUC score (85.9% & 86.8%, respectively) are improved compared to the model without tuning.

collecting predictions

bank_churn_prediction_rf<- bank_churn_final_fit_rf %>%
  collect_predictions()
bank_churn_prediction_rf

## # A tibble: 1,915 x 7
##    id               .pred_0 .pred_1  .row .pred_class Exited .config            
##    <chr>              <dbl>   <dbl> <int> <fct>       <fct>  <chr>              
##  1 train/test split   0.732  0.268      1 0           1      Preprocessor1_Mode~
##  2 train/test split   0.879  0.121      7 0           0      Preprocessor1_Mode~
##  3 train/test split   0.963  0.0369     9 0           0      Preprocessor1_Mode~
##  4 train/test split   0.948  0.0516    17 0           0      Preprocessor1_Mode~
##  5 train/test split   0.860  0.140     24 0           0      Preprocessor1_Mode~
##  6 train/test split   0.617  0.383     28 0           0      Preprocessor1_Mode~
##  7 train/test split   0.985  0.0147    34 0           0      Preprocessor1_Mode~
##  8 train/test split   0.947  0.0528    36 0           0      Preprocessor1_Mode~
##  9 train/test split   0.342  0.658     41 1           1      Preprocessor1_Mode~
## 10 train/test split   0.656  0.344     47 0           1      Preprocessor1_Mode~
## # ... with 1,905 more rows
…
