…
Preprocess training data

Applying trained recipe to trained data

diamond_training_prep <- diamond_recipe_prep %>%
  bake (new_data = NULL)
diamond_training_prep

## # A tibble: 180 x 9
##     Carat Price Colour_yellow Clarity_Visible.t~ Cut_Very.Good Certification_Ot~
##     <dbl> <dbl>         <dbl>              <dbl>         <dbl>             <dbl>
##  1 0.0442 -1.92             1                  0             0                 1
##  2 0.0442 -1.78             1                  1             0                 0
##  3 0.107  -1.76             0                  1             0                 0
##  4 0.360  -1.63             1                  1             0                 1
##  5 1.18   -1.53             0                  1             0                 1
##  6 0.171  -1.52             0                  1             1                 0
##  7 0.0442 -1.49             1                  1             1                 0
##  8 0.360  -1.46             0                  1             1                 0
##  9 0.171  -1.38             1                  1             0                 1
## 10 0.0442 -1.38             0                  0             0                 1
## # ... with 170 more rows, and 3 more variables: Polish_Very.Good <dbl>,
## #   Symmetry_Very.Good <dbl>,
## #   Wholesaler_Low.and.Medium.priced.diamond.wholesaler <dbl>

Preprocess test data

Applying trained recipe to test data

diamond_test_prep <- diamond_recipe_prep %>%
  bake (new_data = diamond_test)
diamond_test_prep

## # A tibble: 64 x 9
##     Carat Price Colour_yellow Clarity_Visible.t~ Cut_Very.Good Certification_Ot~
##     <dbl> <dbl>         <dbl>              <dbl>         <dbl>             <dbl>
##  1 -0.461 0.617             0                  0             1                 0
##  2 -0.777 0.632             0                  0             1                 0
##  3 -1.22  0.644             0                  0             1                 0
##  4 -1.03  0.648             0                  0             1                 0
##  5 -1.09  0.650             0                  0             1                 0
##  6 -0.587 0.679             0                  0             1                 0
##  7 -1.22  0.686             0                  0             1                 0
##  8 -1.22  0.686             0                  0             1                 0
##  9 -1.16  0.714             0                  0             1                 0
## 10 -1.16  0.726             0                  0             1                 0
## # ... with 54 more rows, and 3 more variables: Polish_Very.Good <dbl>,
## #   Symmetry_Very.Good <dbl>,
## #   Wholesaler_Low.and.Medium.priced.diamond.wholesaler <dbl>
…
Making predictions

diamond_predictions <- lm_fit %>%
  predict(new_data = diamond_test_prep)
diamond_predictions

## # A tibble: 64 x 1
##    .pred
##    <dbl>
##  1 1.00 
##  2 0.833
##  3 0.646
##  4 0.799
##  5 0.748
##  6 1.16 
##  7 0.646
##  8 0.646
##  9 0.442
## 10 0.697
## # ... with 54 more rows

Adding predictions to test data

diamond_test_prep_results<- diamond_test_prep %>%
  bind_cols(diamond_predictions)
diamond_test_prep_results

## # A tibble: 64 x 10
##     Carat Price Colour_yellow Clarity_Visible.t~ Cut_Very.Good Certification_Ot~
##     <dbl> <dbl>         <dbl>              <dbl>         <dbl>             <dbl>
##  1 -0.461 0.617             0                  0             1                 0
##  2 -0.777 0.632             0                  0             1                 0
##  3 -1.22  0.644             0                  0             1                 0
##  4 -1.03  0.648             0                  0             1                 0
##  5 -1.09  0.650             0                  0             1                 0
##  6 -0.587 0.679             0                  0             1                 0
##  7 -1.22  0.686             0                  0             1                 0
##  8 -1.22  0.686             0                  0             1                 0
##  9 -1.16  0.714             0                  0             1                 0
## 10 -1.16  0.726             0                  0             1                 0
## # ... with 54 more rows, and 4 more variables: Polish_Very.Good <dbl>,
## #   Symmetry_Very.Good <dbl>,
## #   Wholesaler_Low.and.Medium.priced.diamond.wholesaler <dbl>, .pred <dbl>
…
lm_last_fit %>%
  collect_metrics()

## # A tibble: 2 x 4
##   .metric .estimator .estimate .config             
##   <chr>   <chr>          <dbl> <chr>               
## 1 rmse    standard     329.    Preprocessor1_Model1
## 2 rsq     standard       0.485 Preprocessor1_Model1

COllecting predictions

lm_last_fit %>%
  collect_predictions()

## # A tibble: 64 x 5
##    id               .pred  .row Price .config             
##    <chr>            <dbl> <int> <dbl> <chr>               
##  1 train/test split 3174.     2  3000 Preprocessor1_Model1
##  2 train/test split 3098.     6  3007 Preprocessor1_Model1
##  3 train/test split 3013.    10  3012 Preprocessor1_Model1
##  4 train/test split 3082.    12  3014 Preprocessor1_Model1
##  5 train/test split 3059.    14  3015 Preprocessor1_Model1
##  6 train/test split 3243.    18  3028 Preprocessor1_Model1
##  7 train/test split 3013.    22  3031 Preprocessor1_Model1
##  8 train/test split 3013.    23  3031 Preprocessor1_Model1
##  9 train/test split 2921.    34  3044 Preprocessor1_Model1
## 10 train/test split 3036.    35  3049 Preprocessor1_Model1
## # ... with 54 more rows
…
## # A tibble: 2 x 4
##   .metric .estimator .estimate .config             
##   <chr>   <chr>          <dbl> <chr>               
## 1 rmse    standard       0.728 Preprocessor1_Model1
## 2 rsq     standard       0.485 Preprocessor1_Model1

Collecting predictions

diamond_wkfl_preds<- diamond_wkfl_fit%>%
  collect_predictions()
diamond_wkfl_preds

## # A tibble: 64 x 5
##    id               .pred  .row Price .config             
##    <chr>            <dbl> <int> <dbl> <chr>               
##  1 train/test split 1.00      2 0.617 Preprocessor1_Model1
##  2 train/test split 0.833     6 0.632 Preprocessor1_Model1
##  3 train/test split 0.646    10 0.644 Preprocessor1_Model1
##  4 train/test split 0.799    12 0.648 Preprocessor1_Model1
##  5 train/test split 0.748    14 0.650 Preprocessor1_Model1
##  6 train/test split 1.16     18 0.679 Preprocessor1_Model1
##  7 train/test split 0.646    22 0.686 Preprocessor1_Model1
##  8 train/test split 0.646    23 0.686 Preprocessor1_Model1
##  9 train/test split 0.442    34 0.714 Preprocessor1_Model1
## 10 train/test split 0.697    35 0.726 Preprocessor1_Model1
## # ... with 54 more rows
…
## # A tibble: 3 x 6
##   .metric .estimator  mean     n std_err .config             
##   <chr>   <chr>      <dbl> <int>   <dbl> <chr>               
## 1 mae     standard   0.529    10  0.0324 Preprocessor1_Model1
## 2 rmse    standard   0.701    10  0.0417 Preprocessor1_Model1
## 3 rsq     standard   0.477    10  0.0724 Preprocessor1_Model1

Detailed cross validation results

diamond_rs_metrics <- diamond_rs_fit %>%
  collect_metrics(summarize = FALSE)
diamond_rs_metrics

## # A tibble: 30 x 5
##    id     .metric .estimator .estimate .config             
##    <chr>  <chr>   <chr>          <dbl> <chr>               
##  1 Fold01 rmse    standard       0.712 Preprocessor1_Model1
##  2 Fold01 mae     standard       0.512 Preprocessor1_Model1
##  3 Fold01 rsq     standard       0.813 Preprocessor1_Model1
##  4 Fold02 rmse    standard       0.560 Preprocessor1_Model1
##  5 Fold02 mae     standard       0.492 Preprocessor1_Model1
##  6 Fold02 rsq     standard       0.369 Preprocessor1_Model1
##  7 Fold03 rmse    standard       0.593 Preprocessor1_Model1
##  8 Fold03 mae     standard       0.421 Preprocessor1_Model1
##  9 Fold03 rsq     standard       0.458 Preprocessor1_Model1
## 10 Fold04 rmse    standard       0.932 Preprocessor1_Model1
## # ... with 20 more rows
…
