Tree based method - My website
…
## # A tibble: 2 x 4
##   .metric  .estimator .estimate .config             
##   <chr>    <chr>          <dbl> <chr>               
## 1 accuracy binary         0.928 Preprocessor1_Model1
## 2 roc_auc  binary         0.774 Preprocessor1_Model1

Collecting Predictions

bank_wkfl_preds_dt <- bank_wkfl_fit_dt %>%
  collect_predictions()
bank_wkfl_preds_dt

## # A tibble: 236 x 7
##    id               .pred_no .pred_yes  .row .pred_class y     .config          
##    <chr>               <dbl>     <dbl> <int> <fct>       <fct> <chr>            
##  1 train/test split    0.967    0.0329     1 no          no    Preprocessor1_Mo~
##  2 train/test split    0.967    0.0329     9 no          no    Preprocessor1_Mo~
##  3 train/test split    0.967    0.0329    13 no          no    Preprocessor1_Mo~
##  4 train/test split    0.967    0.0329    16 no          no    Preprocessor1_Mo~
##  5 train/test split    0.8      0.2       17 no          no    Preprocessor1_Mo~
##  6 train/test split    0.967    0.0329    19 no          no    Preprocessor1_Mo~
##  7 train/test split    0.967    0.0329    21 no          no    Preprocessor1_Mo~
##  8 train/test split    0.967    0.0329    30 no          no    Preprocessor1_Mo~
##  9 train/test split    0.967    0.0329    34 no          no    Preprocessor1_Mo~
## 10 train/test split    0.967    0.0329    37 no          no    Preprocessor1_Mo~
## # ... with 226 more rows
…
## # A tibble: 3 x 6
##   .metric .estimator  mean     n std_err .config             
##   <chr>   <chr>      <dbl> <int>   <dbl> <chr>               
## 1 roc_auc binary     0.542    10 0.0261  Preprocessor1_Model1
## 2 sens    binary     0.991    10 0.00395 Preprocessor1_Model1
## 3 spec    binary     0        10 0       Preprocessor1_Model1

Detailed cross validation results

rs_metrics_dt <- bank_rs_fit_dt %>%
  collect_metrics(summarize = FALSE)
rs_metrics_dt

## # A tibble: 30 x 5
##    id     .metric .estimator .estimate .config             
##    <chr>  <chr>   <chr>          <dbl> <chr>               
##  1 Fold01 sens    binary         0.986 Preprocessor1_Model1
##  2 Fold01 spec    binary         0     Preprocessor1_Model1
##  3 Fold01 roc_auc binary         0.413 Preprocessor1_Model1
##  4 Fold02 sens    binary         1     Preprocessor1_Model1
##  5 Fold02 spec    binary         0     Preprocessor1_Model1
##  6 Fold02 roc_auc binary         0.643 Preprocessor1_Model1
##  7 Fold03 sens    binary         1     Preprocessor1_Model1
##  8 Fold03 spec    binary         0     Preprocessor1_Model1
##  9 Fold03 roc_auc binary         0.5   Preprocessor1_Model1
## 10 Fold04 sens    binary         1     Preprocessor1_Model1
## # ... with 20 more rows
…
Detailed tuning results

dt_tuning %>%
  collect_metrics(summarize = FALSE)

## # A tibble: 150 x 8
##    id     cost_complexity tree_depth min_n .metric .estimator .estimate .config 
##    <chr>            <dbl>      <int> <int> <chr>   <chr>          <dbl> <chr>   
##  1 Fold01        0.000608          8    23 sens    binary         0.986 Preproc~
##  2 Fold01        0.000608          8    23 spec    binary         0     Preproc~
##  3 Fold01        0.000608          8    23 roc_auc binary         0.413 Preproc~
##  4 Fold02        0.000608          8    23 sens    binary         1     Preproc~
##  5 Fold02        0.000608          8    23 spec    binary         0     Preproc~
##  6 Fold02        0.000608          8    23 roc_auc binary         0.643 Preproc~
##  7 Fold03        0.000608          8    23 sens    binary         1     Preproc~
##  8 Fold03        0.000608          8    23 spec    binary         0     Preproc~
##  9 Fold03        0.000608          8    23 roc_auc binary         0.5   Preproc~
## 10 Fold04        0.000608          8    23 sens    binary         1     Preproc~
## # ... with 140 more rows
…
