My first post - My website
…
Preprocess training data

Applying the trained recipe to the training data

bank_training_prep <- bank_recipe_prep %>%
  bake (new_data = NULL)
bank_training_prep

## # A tibble: 708 x 29
##        age balance    day duration campaign y     job_management job_Others
##      <dbl>   <dbl>  <dbl>    <dbl>    <dbl> <fct>          <dbl>      <dbl>
##  1 -0.0765   0.338 -1.10   -0.289    -0.117 0                  0          0
##  2  0.131    1.23  -0.138  -1.04     -0.117 0                  0          1
##  3  0.339    1.75   0.222  -0.592    -0.117 0                  0          1
##  4  0.0273   0.905  1.66    0.0139   -0.117 0                  1          0
##  5  0.235   -1.24   0.461  -0.377     0.644 0                  1          0
##  6  0.443   -0.157 -0.377  -0.624    -0.117 0                  0          1
##  7  1.38    -0.169  0.701  -0.903    -0.117 0                  0          1
##  8 -0.907    0.628  1.42   -0.847     0.644 0                  0          0
##  9 -0.180   -0.832  1.66   -0.711    -0.117 0                  0          0
## 10  1.79    -0.446 -1.34   -0.377    -0.878 0                  1          0
## # ... with 698 more rows, and 21 more variables: job_technician <dbl>,
## #   marital_married <dbl>, marital_single <dbl>, education_secondary <dbl>,
## #   education_tertiary <dbl>, default_X1 <dbl>, housing_X1 <dbl>,
## #   loan_X1 <dbl>, contact_telephone.and.others <dbl>, month_X10 <dbl>,
## #   month_X11 <dbl>, month_X2 <dbl>, month_X3 <dbl>, month_X4 <dbl>,
## #   month_X5 <dbl>, month_X6 <dbl>, month_X7 <dbl>, month_X8 <dbl>,
## #   month_X9 <dbl>, poutcome_success.and.others <dbl>, ...

Preprocess test data

Applying trained recipe to the test data

bank_test_prep <- bank_recipe_prep %>%
  bake (new_data = bank_test)
bank_test_prep

## # A tibble: 236 x 29
##       age balance    day duration campaign y     job_management job_Others
##     <dbl>   <dbl>  <dbl>    <dbl>    <dbl> <fct>          <dbl>      <dbl>
##  1 -0.907   0.157 -0.976  -0.313    -0.878 0                  0          1
##  2  0.443  -0.313 -0.976  -0.496    -0.117 0                  0          1
##  3  2.00   -0.929  0.701  -1.17     -0.878 0                  1          0
##  4  1.58    0.314 -1.58   -1.02      0.644 0                  0          0
##  5 -1.22    0.700 -1.10   -0.297    -0.878 0                  0          1
##  6 -0.492  -0.157 -0.497   3.19     -0.117 0                  1          0
##  7 -0.284  -1.18  -1.58   -0.727    -0.878 0                  0          1
##  8  1.79   -0.965  1.78    1.33      0.644 0                  0          1
##  9  0.443  -1.04  -0.257   0.0617    0.644 0                  0          0
## 10 -1.22   -1.24  -0.377  -0.544     1.41  0                  0          1
## # ... with 226 more rows, and 21 more variables: job_technician <dbl>,
## #   marital_married <dbl>, marital_single <dbl>, education_secondary <dbl>,
## #   education_tertiary <dbl>, default_X1 <dbl>, housing_X1 <dbl>,
## #   loan_X1 <dbl>, contact_telephone.and.others <dbl>, month_X10 <dbl>,
## #   month_X11 <dbl>, month_X2 <dbl>, month_X3 <dbl>, month_X4 <dbl>,
## #   month_X5 <dbl>, month_X6 <dbl>, month_X7 <dbl>, month_X8 <dbl>,
## #   month_X9 <dbl>, poutcome_success.and.others <dbl>, ...
…
The above is the significant equation to predict the outcome variable. The AIC is 289.2, which is quite good compared to our manual method

Predicting outcome categories

class_preds <- predict (logistic_fit, new_data = bank_test_prep, type ="class")
class_preds

## # A tibble: 236 x 1
##    .pred_class
##    <fct>      
##  1 0          
##  2 0          
##  3 0          
##  4 0          
##  5 0          
##  6 0          
##  7 0          
##  8 0          
##  9 0          
## 10 0          
## # ... with 226 more rows

The above .pred class is the outcome of our results. That is if the customer is to subscribe to term deposit or not. The number o means no and 1 means yes to subscriptions

Estimated probabilities

prob_preds <- predict (logistic_fit, new_data = bank_test_prep, type ="prob")
prob_preds

## # A tibble: 236 x 2
##    .pred_0 .pred_1
##      <dbl>   <dbl>
##  1   0.922 0.0782 
##  2   0.985 0.0147 
##  3   0.973 0.0272 
##  4   0.999 0.00115
##  5   0.969 0.0305 
##  6   0.700 0.300  
##  7   0.842 0.158  
##  8   0.984 0.0155 
##  9   0.981 0.0186 
## 10   0.930 0.0704 
## # ... with 226 more rows

The above prediction is the probability of outcome occurences.

In tidymodels, outcome variable needs to be a factor

bank$y <- as.factor (bank$y)

Combining results

results <- bank_test_prep %>%
  bind_cols(class_preds, prob_preds)
results

## # A tibble: 236 x 32
##       age balance    day duration campaign y     job_management job_Others
##     <dbl>   <dbl>  <dbl>    <dbl>    <dbl> <fct>          <dbl>      <dbl>
##  1 -0.907   0.157 -0.976  -0.313    -0.878 0                  0          1
##  2  0.443  -0.313 -0.976  -0.496    -0.117 0                  0          1
##  3  2.00   -0.929  0.701  -1.17     -0.878 0                  1          0
##  4  1.58    0.314 -1.58   -1.02      0.644 0                  0          0
##  5 -1.22    0.700 -1.10   -0.297    -0.878 0                  0          1
##  6 -0.492  -0.157 -0.497   3.19     -0.117 0                  1          0
##  7 -0.284  -1.18  -1.58   -0.727    -0.878 0                  0          1
##  8  1.79   -0.965  1.78    1.33      0.644 0                  0          1
##  9  0.443  -1.04  -0.257   0.0617    0.644 0                  0          0
## 10 -1.22   -1.24  -0.377  -0.544     1.41  0                  0          1
## # ... with 226 more rows, and 24 more variables: job_technician <dbl>,
## #   marital_married <dbl>, marital_single <dbl>, education_secondary <dbl>,
## #   education_tertiary <dbl>, default_X1 <dbl>, housing_X1 <dbl>,
## #   loan_X1 <dbl>, contact_telephone.and.others <dbl>, month_X10 <dbl>,
## #   month_X11 <dbl>, month_X2 <dbl>, month_X3 <dbl>, month_X4 <dbl>,
## #   month_X5 <dbl>, month_X6 <dbl>, month_X7 <dbl>, month_X8 <dbl>,
## #   month_X9 <dbl>, poutcome_success.and.others <dbl>, ...
…
## # A tibble: 2 x 4
##   .metric  .estimator .estimate .config             
##   <chr>    <chr>          <dbl> <chr>               
## 1 accuracy binary         0.949 Preprocessor1_Model1
## 2 roc_auc  binary         0.789 Preprocessor1_Model1

collecting predictions

bank_wkfl_fit_results<- bank_wkfl_fit %>%
  collect_predictions()
bank_wkfl_fit_results

## # A tibble: 236 x 7
##    id               .pred_0 .pred_1  .row .pred_class y     .config             
##    <chr>              <dbl>   <dbl> <int> <fct>       <fct> <chr>               
##  1 train/test split   0.922 0.0782      5 0           0     Preprocessor1_Model1
##  2 train/test split   0.985 0.0147      8 0           0     Preprocessor1_Model1
##  3 train/test split   0.973 0.0272     11 0           0     Preprocessor1_Model1
##  4 train/test split   0.999 0.00115    12 0           0     Preprocessor1_Model1
##  5 train/test split   0.969 0.0305     21 0           0     Preprocessor1_Model1
##  6 train/test split   0.700 0.300      31 0           0     Preprocessor1_Model1
##  7 train/test split   0.842 0.158      40 0           0     Preprocessor1_Model1
##  8 train/test split   0.984 0.0155     42 0           0     Preprocessor1_Model1
##  9 train/test split   0.981 0.0186     46 0           0     Preprocessor1_Model1
## 10 train/test split   0.930 0.0704     50 0           0     Preprocessor1_Model1
## # ... with 226 more rows
…
